{
  "items": [
    {
      "name": "Grand cinema",
      "address": "ул. Спартаковская, 6, Казань, Респ. Татарстан, 420007",
      "films": [1, 2]
    },
    {
      "name": "Родина",
      "address": "ул. Баумана, 44/8, Казань, Респ. Татарстан, 420111",
      "films": [1, 2]
    },
    {
      "name": "КАРО 6 Кольцо",
      "address": "ул. Петербургская, 1, 3 этаж, Казань, Респ. Татарстан, 420107",
      "films": [1, 2]
    },
    {
      "name": "Киномакс",
      "address": "пр. Победы, 91, Казань, Респ. Татарстан",
      "films": [1, 2]
    },
    {
      "name": "Port Cinema",
      "address": "пр. Фатыха Амирхана, 1Б, Казань, Респ. Татарстан",
      "films": [1]
    },
    {
      "name": "Кинотеатр Мир",
      "address": "ул. Достоевского, д.30, Казань, 420043",
      "films": [1, 2]
    },
    {
      "name": "Suvar",
      "address": "ТК \"Сита Центр\", ул. Хусаина Мавлютова, 45, 3 этаж, Казань, Респ. Татарстан, 420101",
      "films": [2]
    },
    {
      "name": "Korston",
      "address": "ул. Николая Ершова, 1А, Казань, Респ. Татарстан, 420045",
      "films": [2]
    },
    {
      "name": "Киномечта",
      "address": "ТРК \"Парк Хаус\", пр. Хусаина Ямашева, 46/33, Казань, Респ. Татарстан, 420124",
      "films": [1]
    },
    {
      "name": "Магия Кино",
      "address": "просп. Ямашева, 97, Казань, Респ. Татарстан, 420053",
      "films": [1, 2]
    }
  ]
}