{
  "items": [
    {
      "id": 1,
      "title": "Звёздные войны: Пробуждение силы",
      "director": "Джей Джей Абрамс",
      "actors": "Джон Бойега, Адам Драйвер, Дэйзи Ридли",
      "budget": "$ 200 млн",
      "description": "Через тридцать лет после гибели Дарта Вейдера и Императора галактика по-прежнему в опасности. Государственное образование Новый Порядок во главе с их таинственным верховным лидером Сноуком и его правой рукой Кайло Реном идёт по стопам Империи, пытаясь захватить всю власть. В это нелёгкое время судьба сводит юную девушку Рей и бывшего штурмовика Нового Порядка Финна с героями времён войны с Империей — Ханом Соло, Чубаккой и Королевой Леей. Вместе они должны дать бой Новому Порядку, однако настаёт тот момент, когда становится очевидно, что лишь джедаи могут остановить Сноука и Кайло Рена. И в галактике в живых остаётся только один…",
      "premier_date" : "17 декабря 2015"
    },
    {
      "id": 2,
      "title": "Дэдпул",
      "director": "Тим Миллер",
      "actors": "Райан Рейнольдс, Морена Баккарин, Эд Скрейн, Джина Карано",
      "budget": "$ 200 млн",
      "description": "Уэйд Уилсон — наёмник. Будучи побочным продуктом программы вооружённых сил под названием «Оружие X», Уилсон приобрёл невероятную силу, проворство и способность к исцелению. Но страшной ценой: его клеточная структура постоянно меняется, а здравомыслие сомнительно. Всё, чего Уилсон хочет, — это держаться на плаву в социальной выгребной яме. Но течение в ней слишком быстрое.",
      "premier_date" : "11 февраля 2016"
    },
    {
      "id": 3,
      "title": "Омерзительная восьмёрка",
      "director": "Квентин Тарантино",
      "actors": "Курт Рассел, Дженнифер Джейсон Ли, Сэмюэл Л. Джексон, Майкл Мэдсен, Тим Рот, Уолтон Гоггинс, Демиан Бишир, Брюс Дерн, Ченнинг Тейтум",
      "budget": "$44 000 000",
      "description": "США после Гражданской войны. Легендарный охотник за головами Джон Рут по кличке Вешатель конвоирует заключенную. По пути к ним прибивается еще один охотник. Снежная буря вынуждает всех троих искать укрытие в лавке на отшибе, где уже расположилась весьма пестрая компания: генерал, шериф, мексиканец, француз и ковбой… И один из них — не тот, за кого себя выдает.",
      "premier_date" : "14 января 2016"
    }

  ]
}